Lab3 - Copy/simulation/qsim/Lab3.msim.vcd
$comment
	File created using the following command:
		vcd file Lab3.msim.vcd -direction
$end
$date
	Wed Sep 25 18:31:03 2024
$end
$version
	ModelSim Version 10.3c
$end
$timescale
	1ps
$end

$scope module Lab3_vlg_vec_tst $end
$var reg 1 ! D0 $end
$var reg 1 " D1 $end
$var reg 1 # D2 $end
$var reg 1 $ D3 $end
$var wire 1 % Sa $end
$var wire 1 & Sb $end
$var wire 1 ' Sc $end
$var wire 1 ( Sd $end
$var wire 1 ) Se $end
$var wire 1 * Sf $end
$var wire 1 + Sg $end
$var wire 1 , sampler $end

$scope module i1 $end
$var wire 1 - gnd $end
$var wire 1 . vcc $end
$var wire 1 / unknown $end
$var tri1 1 0 devclrn $end
$var tri1 1 1 devpor $end
$var tri1 1 2 devoe $end
$var wire 1 3 Sa~output_o $end
$var wire 1 4 Sb~output_o $end
$var wire 1 5 Sc~output_o $end
$var wire 1 6 Sd~output_o $end
$var wire 1 7 Se~output_o $end
$var wire 1 8 Sf~output_o $end
$var wire 1 9 Sg~output_o $end
$var wire 1 : D0~input_o $end
$var wire 1 ; D2~input_o $end
$var wire 1 < D3~input_o $end
$var wire 1 = D1~input_o $end
$var wire 1 > inst8~0_combout $end
$var wire 1 ? inst13~0_combout $end
$var wire 1 @ inst15~0_combout $end
$var wire 1 A inst20~0_combout $end
$var wire 1 B inst21~0_combout $end
$var wire 1 C inst22~0_combout $end
$var wire 1 D inst23~combout $end
$upscope $end
$upscope $end
$enddefinitions $end
#0
$dumpvars
0!
0"
0#
0$
0%
0&
0'
0(
0)
0*
1+
x,
0-
1.
x/
10
11
12
03
04
05
06
07
08
19
0:
0;
0<
0=
0>
0?
0@
0A
0B
0C
1D
$end
#20000
1!
1:
0,
1C
1B
1A
1>
13
16
17
18
1%
1(
1)
1*
#40000
1"
0!
1=
0:
1,
0D
0B
0A
1@
0>
03
15
06
07
09
0%
1'
0(
0)
0+
#60000
1!
1:
0,
1B
0@
05
17
0'
1)
#80000
1#
0"
0!
1;
0=
0:
1,
0C
1A
1>
13
16
08
1%
1(
0*
#100000
1!
1:
0,
0A
1?
0>
03
14
06
0%
1&
0(
#120000
1"
0!
1=
0:
1,
0B
07
0)
#140000
1!
1:
0,
1D
1C
1B
1A
0?
04
16
17
18
19
0&
1(
1)
1*
1+
#160000
1$
0#
0"
0!
1<
0;
0=
0:
1,
0D
0C
0B
0A
06
07
08
09
0(
0)
0*
0+
#180000
1!
1:
0,
1B
1A
16
17
1(
1)
#200000
1"
0!
1=
0:
1,
0B
07
0)
#220000
1!
1:
0,
0A
1?
1>
13
14
06
1%
1&
0(
#240000
1#
0"
0!
1;
0=
0:
1,
1C
1@
15
18
1'
1*
#260000
1!
1:
0,
0@
0?
04
05
0&
0'
#280000
1"
0!
1=
0:
1,
0C
1@
1?
0>
03
14
15
08
0%
1&
1'
0*
#300000
1!
1:
0,
1A
16
1(
#320000
0$
0#
0"
0!
0<
0;
0=
0:
1,
1D
0A
0@
0?
04
05
06
19
0&
0'
0(
1+
